<svg xmlns="http://www.w3.org/2000/svg" width="34" height="34" viewBox="0 0 34 34">
  <defs>
    <style>
      .cls-1 {
        fill: #fff;
        fill-rule: evenodd;
      }
    </style>
  </defs>
  <path id="Close_Cross" data-name="Close Cross" class="cls-1" d="M22.828,16.671l9.712-9.718a3.935,3.935,0,0,0-5.563-5.568L17.264,11.1,7.551,1.385A3.935,3.935,0,0,0,1.988,6.953L11.7,16.671,1.988,26.389a3.935,3.935,0,1,0,5.563,5.568l9.712-9.718,9.712,9.719a3.935,3.935,0,0,0,5.563-5.568Z"/>
</svg>
