<?xml version="1.0" encoding="utf-8"?>
<!-- Generator: Adobe Illustrator 21.1.0, SVG Export Plug-In . SVG Version: 6.00 Build 0)  -->
<svg version="1.1" id="Capa_1" xmlns="http://www.w3.org/2000/svg" xmlns:xlink="http://www.w3.org/1999/xlink" x="0px" y="0px"
	 viewBox="0 0 22.5 30" style="enable-background:new 0 0 22.5 30;" xml:space="preserve">
<style type="text/css">
	.st0{fill:#FFFFFF;}
</style>
<title>delete</title>
<g>
	<path class="st0" d="M20.6,3.5h-3.8V0.9c0-0.5-0.4-0.9-0.9-0.9c0,0,0,0,0,0c0,0-0.1,0-0.1,0l0,0h-9C6.3,0,5.9,0.4,5.9,0.9
		c0,0,0,0,0,0v2.6H1.9c-1.1,0-2,0.9-1.9,2c0,0,0,0,0,0v3.3h1.7v19c0,1.1,0.8,2,1.9,2c0,0,0,0,0.1,0h15.3c1.1,0,1.9-0.9,1.9-2
		c0,0,0,0,0-0.1v-19h1.7V5.6C22.5,4.5,21.7,3.6,20.6,3.5C20.6,3.5,20.6,3.5,20.6,3.5z M7.5,1.9H15v1.7H7.5V1.9z M19,28
		c0,0.1,0,0.1-0.1,0.2c0,0,0,0-0.1,0H3.6c-0.1,0-0.1,0-0.2-0.1c0,0,0,0,0-0.1v-19H19V28z M20.7,7.1H1.8V5.6c0-0.1,0-0.2,0.1-0.2
		c0,0,0,0,0,0h18.6c0.1,0,0.2,0,0.2,0.1c0,0,0,0,0,0L20.7,7.1L20.7,7.1L20.7,7.1z"/>
	<rect x="14.5" y="11.1" class="st0" width="1.8" height="15.4"/>
	<rect x="10.4" y="11.1" class="st0" width="1.8" height="15.4"/>
	<rect x="6.3" y="11.1" class="st0" width="1.8" height="15.4"/>
</g>
</svg>
