<?xml version="1.0" encoding="utf-8"?>
<!-- Generator: Adobe Illustrator 18.1.1, SVG Export Plug-In . SVG Version: 6.00 Build 0)  -->
<svg version="1.1" id="Calque_1" xmlns="http://www.w3.org/2000/svg" xmlns:xlink="http://www.w3.org/1999/xlink" x="0px" y="0px"
	 viewBox="350 398.5 400 135" enable-background="new 350 398.5 400 135" xml:space="preserve" height="135px" width="400px">
<g>
	<path fill="#E1312C" d="M440,523.5v9.8h-2.3v-24.9h9.1c2.6,0,4.6,0.6,5.9,1.8c1.3,1.2,1.9,3,1.9,5.6c0,4-1.6,6.5-4.8,7.3l5.2,10.3
		h-2.5l-4.9-9.8H440V523.5z M452.4,515.8c0-1.9-0.5-3.2-1.3-4.1c-0.8-0.8-2.3-1.3-4.1-1.3h-7v11.2h7
		C450.6,521.4,452.4,519.5,452.4,515.8z"/>
	<path fill="#E1312C" d="M459.8,533.3v-24.9h15v2h-12.7v9.2h10.6v1.9h-10.6v9.7h12.7v1.9h-15V533.3z"/>
	<path fill="#E1312C" d="M494.2,532.8c-2.5,0.5-4.6,0.7-6.4,0.7c-1.8,0-3.1-0.2-4.2-0.6s-1.9-0.8-2.6-1.6s-1.2-1.6-1.6-2.6
		c-0.7-1.9-1.1-4.7-1.1-8c0-5.4,0.8-9,2.6-10.7c1.4-1.4,3.6-2.2,6.5-2.2c2,0,4.2,0.2,6.7,0.7l-0.1,1.9c-2.5-0.5-4.4-0.7-6-0.7
		c-1.6,0-2.6,0.1-3.5,0.5s-1.4,0.7-2,1.3c-0.5,0.5-1,1.3-1.2,2.3c-0.5,1.7-0.7,3.7-0.7,6.1s0.1,4.3,0.2,5.5c0.1,1.2,0.5,2.3,1,3.2
		c0.5,1,1.2,1.7,2.2,2.2c1,0.5,2.3,0.6,3.8,0.6s3.7-0.2,6.1-0.7L494.2,532.8z"/>
	<path fill="#E1312C" d="M501.1,523.5v9.8h-2.3v-24.9h9.1c2.6,0,4.6,0.6,5.9,1.8c1.3,1.2,1.9,3,1.9,5.6c0,4-1.6,6.5-4.8,7.3
		l5.2,10.3h-2.5l-4.9-9.8h-7.6V523.5z M513.4,515.8c0-1.9-0.5-3.2-1.3-4.1c-0.8-0.8-2.3-1.3-4.1-1.3h-7v11.2h7
		C511.6,521.4,513.4,519.5,513.4,515.8z"/>
	<path fill="#E1312C" d="M522.9,525.9c0,3.8,2,5.6,6.2,5.6c2.2,0,3.7-0.5,4.8-1.3c1.1-0.8,1.6-2.3,1.6-4.3v-17.5h2.3V526
		c0,2.8-0.7,4.7-2.2,5.9s-3.6,1.8-6.4,1.8s-4.9-0.6-6.4-1.8s-2.2-3.1-2.2-5.9v-17.6h2.2V525.9L522.9,525.9z"/>
	<path fill="#E1312C" d="M541.2,510.3v-2h18v2h-7.8v22.9h-2.3v-22.9H541.2z"/>
	<path fill="#E1312C" d="M562.8,533.3v-24.9h15v2h-12.7v9.2h10.6v1.9h-10.6v9.7h12.7v1.9h-15V533.3z"/>
	<path fill="#E1312C" d="M582.6,533.3v-24.9h4.2l7.7,21.8l7.7-21.8h4.2v24.9h-2.3v-22.7h-0.5l-7.8,21.8h-2.6l-7.8-21.8h-0.5v22.7
		H582.6L582.6,533.3z"/>
	<path fill="#E1312C" d="M612.6,533.3v-24.9h15v2h-12.7v9.2h10.6v1.9h-10.6v9.7h12.7v1.9h-15V533.3z"/>
	<path fill="#E1312C" d="M632.4,533.3v-24.9h4.3l10.4,22.9h0.8v-22.9h2.2v24.9h-4.3l-10.4-23h-0.8v22.9h-2.2V533.3z"/>
	<path fill="#E1312C" d="M653.8,510.3v-2h18v2H664v22.9h-2.3v-22.9H653.8z"/>
</g>
<g>
	<path fill="#E1312C" d="M481.1,425.2h14.6l8.4,40.4h2.9l8.8-40.4H530l-12.6,52.4h-23.9L481.1,425.2z"/>
	<path fill="#E1312C" d="M533.9,418.4v-14.3h14v14.3H533.9z M533.9,477.6v-52.4h14v52.4H533.9z"/>
	<path fill="#E1312C" d="M601.3,404.2v73.4h-13.9v-2.2c-4.9,2.3-9.1,3.5-12.7,3.5c-7.7,0-12.9-2.2-15.9-6.6
		c-3-4.4-4.6-11.4-4.6-20.9c0-9.6,1.8-16.4,5.4-20.9c3.6-4.3,9-6.6,16.3-6.6c2.3,0,5.4,0.4,9.4,1.1l2,0.4v-21.2H601.3z M585.9,465
		l1.4-0.4V437c-3.8-0.7-7.3-1.1-10.3-1.1c-5.6,0-8.5,5-8.5,15.1c0,5.4,0.6,9.4,1.9,11.6c1.2,2.3,3.4,3.5,6.2,3.5
		C579.5,466.3,582.6,465.8,585.9,465z"/>
	<path fill="#E1312C" d="M624.2,464.4c1.7,1.4,4,2.2,7.1,2.2c6.5,0,12.4-0.2,17.4-0.6l2.9-0.4l0.2,10.4c-8,1.9-15.3,2.9-21.8,2.9
		c-7.9,0-13.7-2-17.1-6.2c-3.6-4.2-5.4-11-5.4-20.4c0-18.8,7.7-28.2,23.1-28.2c15.2,0,22.9,7.9,22.9,23.7l-1.1,9.7h-30.8
		C621.7,460.5,622.5,462.9,624.2,464.4z M614.6,409.3l26.4-10.7l4.2,12l-27.5,7.8L614.6,409.3z M639.7,446.6c0-4.2-0.7-7.1-2-8.8
		c-1.3-1.7-3.6-2.5-7-2.5c-3.4,0-5.6,0.8-7.1,2.5c-1.3,1.7-2,4.6-2.2,8.6h18.2V446.6z"/>
	<g>
		<path fill="#E1312C" d="M363.7,477.8v-52.3h6.4v52.3c0,6.2-1.2,11-3.5,14.3c-2.3,3.2-7,6.7-14,10.2l-2.5-5c5.8-3.2,9.5-6,11.2-8.3
			S363.7,482.9,363.7,477.8z M363.7,412.2v-8h6.4v8C370,412.2,363.7,412.2,363.7,412.2z"/>
		<path fill="#E1312C" d="M379.4,452.1c0-10.1,1.7-17.1,5-21.3s9.1-6.2,17.3-6.2s13.9,2,17.3,6.2c3.4,4.2,5,11.3,5,21.3
			s-1.6,17.1-4.7,21.5c-3.1,4.3-9,6.4-17.6,6.4c-8.5-0.1-14.5-2.2-17.6-6.5C380.9,469.3,379.4,462.1,379.4,452.1z M386,451.9
			c0,8.4,1,14.3,2.9,17.5c1.9,3.2,6.2,4.8,12.8,4.8c6.6,0,10.8-1.7,12.8-4.9c2-3.2,3-9.1,3-17.4c0-8.4-1.1-14-3.4-17.1
			c-2.3-3.1-6.4-4.7-12.5-4.7c-6,0-10.2,1.6-12.5,4.6C387.2,437.8,386,443.5,386,451.9z"/>
		<path fill="#E1312C" d="M456.5,424.4c7.1,0,12,2,14.9,6.2c2.8,4.1,4.2,11.3,4.2,21.3s-1.8,17.3-5.3,21.6
			c-3.5,4.2-10.1,6.4-19.7,6.4c-4,0-8.8-0.2-14.3-0.8l-2.8-0.2v-77h6.4v26.5C445.3,425.8,451,424.4,456.5,424.4z M439.8,473.5
			c4.9,0.5,9,0.6,12,0.6c3,0,5.8-0.5,8.2-1.3c2.4-0.8,4.3-2.3,5.6-4.3c1.3-2,2.2-4.3,2.6-7c0.5-2.6,0.6-6,0.6-10.3
			c0-7.6-1-12.9-2.8-16.2s-5.2-4.9-10.2-4.9c-2.4,0-4.9,0.4-7.7,1c-2.8,0.6-4.8,1.2-6.2,1.9l-2.2,0.8L439.8,473.5L439.8,473.5z"/>
	</g>
</g>
<g>
	<path fill="#D4C13F" d="M707.1,439.3h-25.7c-3.4,0-6.2,2.8-6.2,6.2v10.9c0,3.4,2.8,6.2,6.2,6.2h25.7c3.4,0,6.1-2.8,6.2-6.2v-11
		C713.3,442.1,710.6,439.3,707.1,439.3z M705.8,452.9h-22.1c-1,0-1.8-0.8-1.8-1.8s0.8-1.8,1.8-1.8h22.1c1,0,1.8,0.8,1.8,1.8
		S706.7,452.9,705.8,452.9z"/>
	<g>
		<path fill="#E1312C" d="M714.7,424.7h-40.9c-7.3,0-13.2,6-13.3,13.3v27.6c0,7.3,6,13.2,13.3,13.2h40.9c7.3,0,13.2-6,13.2-13.2V438
			C727.9,430.6,722.1,424.7,714.7,424.7z M716.4,456.5c0,5.2-4.2,9.4-9.4,9.4h-25.7c-5.2,0-9.4-4.2-9.4-9.4v-11
			c0-5.2,4.2-9.4,9.4-9.4h25.7c5.2,0,9.4,4.2,9.4,9.4V456.5z"/>
		<path fill="#E1312C" d="M745.9,431.4c0,0-7,2.2-11.2,6.5c-1,1-1,1-1,1c-0.8,1.2-1.6,4.2-1.6,6.5v13.8c0,2.4,0.7,5.3,1.6,6.5
			c0,0,0,0,1,1c4.2,4.3,11.2,6.5,11.2,6.5c2.3,0.7,4.1-0.6,4.1-3v-35.6C750,432,748.2,430.7,745.9,431.4z"/>
	</g>
</g>
</svg>
