<?xml version="1.0" encoding="utf-8"?>
<!-- Generator: Adobe Illustrator 18.1.1, SVG Export Plug-In . SVG Version: 6.00 Build 0)  -->
<svg version="1.1" id="Capa_1" xmlns="http://www.w3.org/2000/svg" xmlns:xlink="http://www.w3.org/1999/xlink" x="0px" y="0px"
	 viewBox="11.2 43.6 42 50" enable-background="new 11.2 43.6 42 50" xml:space="preserve" height="55px" width="63px">
<g>
	<g id="Layer_1_31_">
		<g>
			<path fill="#91B841" d="M32.2,51.3C24.4,51.3,18,57.9,18,66c0,5.3,2,8.4,3.5,10.7c0.9,1.4,1.4,2.3,1.4,3.1c0,1.9,0.9,3.7,2.6,5.1
				c0,1.1,0.2,3.9,0.2,3.9l0,0c0,0.8,0.4,2.4,2.9,3.3c0.3,0.5,0.7,0.9,1.2,1.2c0.3,0.2,0.6,0.3,1,0.3h2.7c0.3,0,0.7-0.1,1-0.3
				c0.4-0.3,0.8-0.8,1.2-1.2c2.5-0.9,2.9-2.5,2.9-3.3c0,0,0.1-2.8,0.2-3.9c1.7-1.3,2.6-3.1,2.6-5.1c0-0.8,0.5-1.7,1.4-3.1
				c1.5-2.3,3.5-5.4,3.5-10.7C46.4,57.9,40.1,51.3,32.2,51.3z M40,74.5c-1,1.6-2,3.2-2,5.3c0,0.9-0.7,1.6-1.4,2.1h-8.7
				c-0.5-0.4-1.4-1.2-1.4-2.1c0-2.1-0.9-3.6-2-5.3c-1.4-2.1-2.8-4.4-2.8-8.5c0-6,4.7-10.9,10.6-10.9c5.8,0,10.6,4.9,10.6,10.9
				C42.8,70.1,41.3,72.4,40,74.5z"/>
			<path fill="#91B841" d="M32.2,48.4c0.5,0,0.8-0.4,0.8-1v-2.8c0-0.5-0.4-1-0.8-1c-0.5,0-0.9,0.4-0.9,1v2.9
				C31.4,48,31.8,48.4,32.2,48.4z"/>
			<path fill="#91B841" d="M22.8,50.4c0.2,0.3,0.4,0.5,0.7,0.5c0.1,0,0.3,0,0.4-0.1c0.4-0.3,0.5-0.9,0.3-1.3L22.9,47
				c-0.2-0.5-0.8-0.6-1.3-0.4c-0.4,0.3-0.5,0.9-0.3,1.3L22.8,50.4z"/>
			<path fill="#91B841" d="M17.6,56l-2.3-1.4c-0.4-0.3-0.9-0.1-1.3,0.4c-0.2,0.5-0.1,1,0.3,1.3l2.3,1.4c0.1,0.1,0.3,0.1,0.4,0.1
				c0.3,0,0.6-0.2,0.7-0.5C18.1,56.8,18,56.3,17.6,56z"/>
			<path fill="#91B841" d="M15.7,66.2c0-0.5-0.4-1-0.9-1h-2.7c-0.5,0-0.9,0.4-0.9,1s0.4,1,0.9,1h2.7C15.3,67.2,15.7,66.7,15.7,66.2z
				"/>
			<path fill="#91B841" d="M16.7,74.8l-2.3,1.4c-0.4,0.3-0.5,0.9-0.3,1.3c0.2,0.3,0.4,0.5,0.7,0.5c0.1,0,0.3,0,0.4-0.1l2.3-1.4
				c0.4-0.3,0.5-0.9,0.3-1.3C17.7,74.7,17.2,74.5,16.7,74.8z"/>
			<path fill="#91B841" d="M50.2,76.2l-2.4-1.4c-0.4-0.3-0.9-0.1-1.3,0.4c-0.2,0.5-0.1,1,0.3,1.3l2.3,1.4c0.1,0.1,0.3,0.1,0.4,0.1
				c0.3,0,0.6-0.2,0.7-0.5C50.7,77.1,50.6,76.5,50.2,76.2z"/>
			<path fill="#91B841" d="M52.4,65.2h-2.6l0,0c-0.5,0-0.9,0.4-0.9,1c0,0.5,0.4,1,0.8,1h2.7l0,0c0.5,0,0.8-0.4,0.8-1
				C53.2,65.7,52.9,65.2,52.4,65.2z"/>
			<path fill="#91B841" d="M47.3,57.8c0.1,0,0.3,0,0.4-0.1l2.3-1.4c0.4-0.3,0.5-0.9,0.3-1.3c-0.2-0.5-0.8-0.6-1.3-0.4L46.8,56
				c-0.4,0.3-0.5,0.9-0.3,1.3C46.7,57.6,47,57.8,47.3,57.8z"/>
			<path fill="#91B841" d="M40.5,50.8c0.1,0.1,0.3,0.1,0.4,0.1c0.3,0,0.6-0.2,0.7-0.5l1.4-2.5c0.2-0.5,0.1-1-0.3-1.3
				c-0.4-0.3-0.9-0.1-1.3,0.4L40,49.5C40,49.9,40.1,50.5,40.5,50.8z"/>
			<path fill="#91B841" d="M31,72c0.1,0.9,0.5,1.1,1.2,1.1s1.1-0.2,1.2-1.1l0.8-6.9c0.1-0.5,0.1-0.9,0.1-1.4v-3.4
				c0-1.5-0.8-2.3-2.1-2.3c-1.4,0-2.1,0.8-2.1,2.3v3.4c0,0.4,0.1,0.9,0.1,1.4L31,72z"/>
			<path fill="#91B841" d="M32.2,75c-1.3,0-2.2,1.1-2.2,2.4s1,2.4,2.2,2.4s2.2-1.1,2.2-2.4C34.5,76.1,33.5,75,32.2,75z"/>
		</g>
	</g>
</g>
</svg>
