<?xml version="1.0" encoding="utf-8"?>
<!-- Generator: Adobe Illustrator 19.2.0, SVG Export Plug-In . SVG Version: 6.00 Build 0)  -->
<svg version="1.1" id="Calque_1" xmlns="http://www.w3.org/2000/svg" xmlns:xlink="http://www.w3.org/1999/xlink" x="0px" y="0px"
	 viewBox="0 0 32 32" style="enable-background:new 0 0 32 32;" xml:space="preserve">
<style type="text/css">
	.st0{fill:#5E5C57;}
</style>
<g>
	<path class="st0" d="M9.3,22.7C9.5,22.9,9.7,23,10,23s0.5-0.1,0.7-0.3l5.3-5.3l5.3,5.3c0.2,0.2,0.5,0.3,0.7,0.3s0.5-0.1,0.7-0.3
		c0.4-0.4,0.4-1,0-1.4L17.4,16l5.3-5.3c0.4-0.4,0.4-1,0-1.4s-1-0.4-1.4,0L16,14.6l-5.3-5.3c-0.4-0.4-1-0.4-1.4,0s-0.4,1,0,1.4
		l5.3,5.3l-5.3,5.3C8.9,21.7,8.9,22.3,9.3,22.7z"/>
</g>
</svg>
