<?xml version="1.0" encoding="utf-8"?>
<!-- Generator: Adobe Illustrator 18.1.1, SVG Export Plug-In . SVG Version: 6.00 Build 0)  -->
<svg version="1.1" id="Layer_1" xmlns="http://www.w3.org/2000/svg" xmlns:xlink="http://www.w3.org/1999/xlink" x="0px" y="0px"
	 viewBox="530 446 40 40" enable-background="new 530 446 40 40" xml:space="preserve" height="40px" width="40px">
<path fill="#E7E7E7" d="M556.8,466l11.8-11.8c1.9-1.9,1.9-4.9,0-6.8c-1.9-1.9-4.9-1.9-6.8,0L550,459.2l-11.8-11.8
	c-1.9-1.9-4.9-1.9-6.8,0c-1.9,1.9-1.9,4.9,0,6.8l11.8,11.8l-11.8,11.8c-1.9,1.9-1.9,4.9,0,6.8c0.9,0.9,2.2,1.4,3.4,1.4
	c1.2,0,2.5-0.5,3.4-1.4l11.8-11.8l11.8,11.8c0.9,0.9,2.2,1.4,3.4,1.4c1.2,0,2.5-0.5,3.4-1.4c1.9-1.9,1.9-4.9,0-6.8L556.8,466z"/>
</svg>
