<?xml version="1.0" encoding="utf-8"?>
<!-- Generator: Adobe Illustrator 18.1.1, SVG Export Plug-In . SVG Version: 6.00 Build 0)  -->
<svg version="1.1" id="Capa_1" xmlns="http://www.w3.org/2000/svg" xmlns:xlink="http://www.w3.org/1999/xlink" x="0px" y="0px"
	 viewBox="-49 190.5 12 10" enable-background="new -49 190.5 12 10" xml:space="preserve" height="20px" width="20px">
<g>
	<g>
		<g>
			<path fill="#EEEEEE" d="M-37.2,195.1l-1.8-1.6v-1.9c0-0.3-0.3-0.6-0.7-0.6c-0.4,0-0.7,0.3-0.7,0.6v0.6l-1.4-1.2
				c-0.7-0.6-1.8-0.6-2.5,0l-4.5,4.1c-0.3,0.2-0.3,0.6,0,0.9c0.3,0.2,0.7,0.2,1,0l4.5-4.1c0.1-0.1,0.4-0.1,0.6,0l4.5,4.1
				c0.1,0.1,0.3,0.2,0.5,0.2c0.2,0,0.4-0.1,0.5-0.2C-36.9,195.7-36.9,195.3-37.2,195.1z"/>
			<path fill="#EEEEEE" d="M-42.8,193c-0.1-0.1-0.3-0.1-0.5,0l-4,3.6c-0.1,0.1-0.1,0.1-0.1,0.2v2.6c0,0.6,0.6,1.1,1.2,1.1h2v-2.7
				h2.2v2.7h2c0.7,0,1.2-0.5,1.2-1.1v-2.6c0-0.1,0-0.2-0.1-0.2L-42.8,193z"/>
		</g>
	</g>
</g>
</svg>
