<?xml version="1.0" encoding="utf-8"?>
<!-- Generator: Adobe Illustrator 19.2.1, SVG Export Plug-In . SVG Version: 6.00 Build 0)  -->
<svg version="1.1" id="Calque_1" xmlns="http://www.w3.org/2000/svg" xmlns:xlink="http://www.w3.org/1999/xlink" x="0px" y="0px"
	 viewBox="0 0 35 75" style="enable-background:new 0 0 35 75;" xml:space="preserve">
<style type="text/css">
	.st0{fill:#B7B7B7;}
	.st1{fill:#E1312C;}
</style>
<g>
	<path class="st0" d="M17.5,4C24.9,4,31,10.1,31,17.5S24.9,31,17.5,31S4,24.9,4,17.5S10,4,17.5,4 M17.5,0C7.8,0,0,7.8,0,17.5
		S7.8,35,17.5,35S35,27.2,35,17.5S27.2,0,17.5,0L17.5,0z"/>
</g>
<g>
	<path class="st0" d="M17.5,44C24.9,44,31,50.1,31,57.5S24.9,71,17.5,71S4,64.9,4,57.5S10,44,17.5,44 M17.5,40C7.8,40,0,47.8,0,57.5
		S7.8,75,17.5,75S35,67.2,35,57.5S27.2,40,17.5,40L17.5,40z"/>
</g>
<circle class="st1" cx="17.5" cy="57.5" r="8.7"/>
</svg>
