<?xml version="1.0" encoding="utf-8"?>
<!-- Generator: Adobe Illustrator 19.1.0, SVG Export Plug-In . SVG Version: 6.00 Build 0)  -->
<svg version="1.1" id="Calque_1" xmlns="http://www.w3.org/2000/svg" xmlns:xlink="http://www.w3.org/1999/xlink" x="0px" y="0px"
	 viewBox="-264.5 381.5 19 31" style="enable-background:new -264.5 381.5 19 31;" xml:space="preserve">
<style type="text/css">
	.st0{fill:none;stroke:#E3382C;stroke-width:6;stroke-linecap:round;stroke-linejoin:round;stroke-miterlimit:10;}
</style>
<polyline class="st0" points="-261.5,384.5 -248.5,397 -261.5,409.5 "/>
</svg>
