<?xml version="1.0" encoding="utf-8"?>
<!-- Generator: Adobe Illustrator 18.1.1, SVG Export Plug-In . SVG Version: 6.00 Build 0)  -->
<svg version="1.1" id="Calque_1" xmlns="http://www.w3.org/2000/svg" xmlns:xlink="http://www.w3.org/1999/xlink" x="0px" y="0px"
	 viewBox="0 0 45 145" enable-background="new 0 0 45 145" xml:space="preserve" height="145px" width="45px">
<g>
	<g>
		<path fill="#64C1D1" d="M24.6,32h-4.5l-9.2,9.4c-0.6,0.6-0.6,1.6,0,2.3c0.3,0.3,0.7,0.5,1.1,0.5c0.4,0,0.8-0.2,1.1-0.5l7.6-7.8
			v7.6c0,0.9,0.7,1.6,1.6,1.6c0.9,0,1.6-0.7,1.6-1.6v-7.6l7.6,7.8c0.3,0.3,0.7,0.5,1.1,0.5c0.4,0,0.8-0.2,1.1-0.5
			c0.6-0.6,0.6-1.6,0-2.3L24.6,32z"/>
		<path fill="#64C1D1" d="M2.3,4.7C1,4.7,0,3.7,0,2.4l0,0C0,1.1,1,0,2.3,0l0,0h40.3C44,0,45,1.1,45,2.4l0,0c0,1.3-1,2.4-2.3,2.4l0,0
			H2.3L2.3,4.7z"/>
	</g>
	<path fill="#64C1D1" d="M2.3,6.5c-0.1,0-0.1,0-0.2,0v21c0,1.6,1.3,2.9,2.8,2.9h34.7c1.6,0,2.8-1.3,2.8-2.9V6.5H2.3z M38.7,14
		l-6,3.1c-0.3,0.2-0.7,0.1-1-0.1l-4.9-3.8l-5.1,8.6c-0.3,0.4-0.8,0.6-1.2,0.4l-5.4-2.7l-7.9,7.4C6.9,27,6.7,27,6.5,27
		c-0.3,0-0.5-0.1-0.7-0.3c-0.3-0.4-0.3-1,0.1-1.4l8.4-7.8c0.3-0.3,0.7-0.3,1.1-0.2l5.2,2.6l5.2-8.8c0.1-0.2,0.4-0.4,0.6-0.4
		c0.3-0.1,0.5,0,0.7,0.2l5.3,4.1l5.4-2.8c0.5-0.2,1-0.1,1.3,0.4C39.4,13.2,39.2,13.7,38.7,14z"/>
</g>
<g>
	<g>
		<path fill="#91B841" d="M22.5,50C10.1,50,0,60.3,0,73c0,8.2,4.2,15.4,10.4,19.4c-5.3-4-8.8-10.7-8.8-18.2C1.7,62,11,52,22.5,52
			C34,52,43.3,62,43.4,74.3c0,7.5-3.5,14.1-8.8,18.2C40.8,88.4,45,81.2,45,73C45,60.3,34.9,50,22.5,50z"/>
		<path fill="#91B841" d="M22.4,54.7c-8.4,0-15.2,7-15.2,15.6c0,5.3,2.6,9.9,6.5,12.8c-3-2.7-5-6.8-5-11.4c0-8.2,6.2-14.8,13.7-14.8
			c7.6,0,13.7,6.6,13.7,14.8c0,4.6-1.9,8.7-5,11.4c3.9-2.8,6.4-7.5,6.4-12.7C37.6,61.7,30.8,54.7,22.4,54.7z"/>
		<path fill="#91B841" d="M22.3,59.5c-5.1,0-9.2,4.2-9.2,9.4c0,2.6,1,4.9,2.7,6.6c-1-1.5-1.6-3.3-1.6-5.3c0-4.9,3.6-8.9,8.1-8.9
			c4.5,0,8.1,4,8.1,8.9c0,2.1-0.7,4.1-1.8,5.6c1.8-1.7,3-4.2,3-7C31.5,63.8,27.4,59.5,22.3,59.5z"/>
	</g>
	<g>
		<path fill="#91B841" d="M28,79.2c0-3.2-2.5-4.7-5.7-4.7c-3.1,0-5.7,1.5-5.7,4.7c0,0.5,0.1,1,0.2,1.5c0,0,0,0,0,0l2.4,13.4
			c0.1,0.5,0.6,0.9,1.1,0.9h4c0.5,0,1-0.4,1.1-0.9l2.4-13.4c0,0,0,0,0,0C27.9,80.2,28,79.7,28,79.2z"/>
		<path fill="#91B841" d="M22.3,64.5c-2.5,0-4.4,2-4.4,4.6c0,2.5,2,4.6,4.4,4.6c2.5,0,4.4-2,4.4-4.6C26.8,66.6,24.8,64.5,22.3,64.5z
			 M22.3,67.2c-1,0-1.9,0.9-1.9,1.9c0,0.3-0.2,0.5-0.5,0.5c-0.3,0-0.5-0.2-0.5-0.5c0-1.7,1.3-3,2.9-3c0.3,0,0.5,0.2,0.5,0.5
			C22.9,66.9,22.6,67.2,22.3,67.2z"/>
	</g>
</g>
<g>
	<path fill="#813B71" d="M31.6,143.1c-0.1-0.3-0.7-0.7-1.4-1.6c-0.8-1-1.1-2.8-1.1-4.1H16c-0.1,1.3-0.3,3.1-1.1,4.1
		c-0.5,0.6-1,1-1.2,1.3c-0.3,0.2-0.4,0.6-0.4,0.9c0,0.7,0.6,1.3,1.3,1.3h16c0.7,0,1.3-0.6,1.3-1.3C31.8,143.5,31.7,143.3,31.6,143.1
		L31.6,143.1z M43.6,100H1.4c-0.8,0-1.4,0.6-1.4,1.4v32.8c0,0.8,0.6,1.4,1.4,1.4h42.1c0.8,0,1.4-0.6,1.4-1.4v-32.8
		C45,100.6,44.4,100,43.6,100z M42.8,127.9c0,0.6-0.5,1-1.1,1H3.2c-0.6,0-1.1-0.5-1.1-1v-25.3c0-0.6,0.5-1,1.1-1h38.5
		c0.6,0,1.1,0.5,1.1,1V127.9z"/>
	<path fill="#813B71" d="M40.2,103.1H4.8c-0.5,0-1,0.4-1,0.9v22.4c0,0.5,0.4,0.9,1,0.9h35.4c0.5,0,0.9-0.4,0.9-0.9V104
		C41.2,103.5,40.7,103.1,40.2,103.1z M23.8,122l-6.5-6.3l-1.3,3.4l-4.4-10.6l11.1,4.2L19,114l6.5,6.3L23.8,122z"/>
</g>
</svg>
